Lab5/simulation/qsim/Lab5.msim.vcd
$comment
	File created using the following command:
		vcd file Lab5.msim.vcd -direction
$end
$date
	Wed Oct 28 17:49:10 2020
$end
$version
	ModelSim Version 2020.1
$end
$timescale
	1ps
$end

$scope module Lab5_vlg_vec_tst $end
$var reg 1 ! A $end
$var reg 1 " B $end
$var reg 1 # c0 $end
$var reg 1 $ CIN $end
$var reg 4 % X4 [3:0] $end
$var reg 4 & Y4 [3:0] $end
$var wire 1 ' c4 $end
$var wire 1 ( COUT $end
$var wire 1 ) S4 [3] $end
$var wire 1 * S4 [2] $end
$var wire 1 + S4 [1] $end
$var wire 1 , S4 [0] $end
$var wire 1 - SOUT $end
$var wire 1 . v $end

$scope module i1 $end
$var wire 1 / gnd $end
$var wire 1 0 vcc $end
$var wire 1 1 unknown $end
$var tri1 1 2 devclrn $end
$var tri1 1 3 devpor $end
$var tri1 1 4 devoe $end
$var wire 1 5 SOUT~output_o $end
$var wire 1 6 COUT~output_o $end
$var wire 1 7 v~output_o $end
$var wire 1 8 c4~output_o $end
$var wire 1 9 S4[3]~output_o $end
$var wire 1 : S4[2]~output_o $end
$var wire 1 ; S4[1]~output_o $end
$var wire 1 < S4[0]~output_o $end
$var wire 1 = B~input_o $end
$var wire 1 > A~input_o $end
$var wire 1 ? CIN~input_o $end
$var wire 1 @ inst|SOUT~0_combout $end
$var wire 1 A inst|COUT~0_combout $end
$var wire 1 B X4[3]~input_o $end
$var wire 1 C Y4[3]~input_o $end
$var wire 1 D Y4[2]~input_o $end
$var wire 1 E X4[2]~input_o $end
$var wire 1 F X4[1]~input_o $end
$var wire 1 G Y4[1]~input_o $end
$var wire 1 H Y4[0]~input_o $end
$var wire 1 I c0~input_o $end
$var wire 1 J X4[0]~input_o $end
$var wire 1 K inst4|comb_3|COUT~0_combout $end
$var wire 1 L inst4|comb_4|COUT~0_combout $end
$var wire 1 M inst4|comb_5|COUT~0_combout $end
$var wire 1 N inst4|v~combout $end
$var wire 1 O inst4|comb_6|COUT~0_combout $end
$var wire 1 P inst4|comb_6|SOUT~combout $end
$var wire 1 Q inst4|comb_5|SOUT~combout $end
$var wire 1 R inst4|comb_4|SOUT~combout $end
$var wire 1 S inst4|comb_3|SOUT~0_combout $end
$upscope $end
$upscope $end
$enddefinitions $end
#0
$dumpvars
x!
x"
0#
x$
b0 %
b0 &
0'
x(
0,
0+
0*
0)
x-
0.
0/
10
x1
12
13
14
x5
x6
07
08
09
0:
0;
0<
x=
x>
x?
x@
xA
0B
0C
0D
0E
0F
0G
0H
0I
0J
0K
0L
0M
0N
0O
0P
0Q
0R
0S
$end
#10000
1#
1I
1S
1<
1,
#20000
b1 %
0#
1J
0I
#30000
b1 &
b0 %
0J
1H
#40000
b10 %
b0 &
0H
1F
0S
1R
1;
0<
0,
1+
#50000
b110 %
b10 &
b100 %
b11 &
1H
1G
0F
1E
1S
1Q
1:
1<
1,
1*
#60000
b111 &
b101 &
b100 &
0H
0G
1D
1M
0S
0R
0Q
0:
0;
0<
0,
0+
0*
1P
1N
17
19
1)
1.
#70000
b1100 %
b1101 %
b1001 %
b110 &
1G
1J
0E
1B
0M
1R
1S
1Q
0P
1O
0N
07
18
09
1:
1<
1;
1+
1,
1*
0)
1'
0.
1P
0O
08
19
1)
0'
#80000
b111 &
1H
1K
0S
0<
1L
0,
0R
0;
1M
0+
0Q
0:
0*
0P
1O
18
09
0)
1'
#90000
b1111 &
b1011 &
b1000 %
b1100 %
b1010 &
0J
1E
0H
0D
1C
0K
1P
19
0L
1)
1R
1;
0M
1+
1Q
1:
1*
0P
1N
17
09
0)
1.
#100000
b1110 %
1F
1L
0R
0;
1M
0+
0Q
0:
0*
1P
0N
07
19
1)
0.
#110000
1#
1I
1S
1<
1,
