Lab2/simulation/qsim/Lab2.msim.vcd
$comment
	File created using the following command:
		vcd file Lab2.msim.vcd -direction
$end
$date
	Wed Oct 07 15:38:53 2020
$end
$version
	ModelSim Version 2020.1
$end
$timescale
	1ps
$end

$scope module Lab2_vlg_vec_tst $end
$var reg 1 ! D $end
$var reg 1 " M1 $end
$var reg 1 # S $end
$var wire 1 $ A $end
$var wire 1 % L $end

$scope module i1 $end
$var wire 1 & gnd $end
$var wire 1 ' vcc $end
$var wire 1 ( unknown $end
$var tri1 1 ) devclrn $end
$var tri1 1 * devpor $end
$var tri1 1 + devoe $end
$var wire 1 , L~output_o $end
$var wire 1 - A~output_o $end
$var wire 1 . M1~input_o $end
$var wire 1 / S~input_o $end
$var wire 1 0 D~input_o $end
$var wire 1 1 inst4~combout $end
$var wire 1 2 inst~0_combout $end
$upscope $end
$upscope $end
$enddefinitions $end
#0
$dumpvars
0!
0"
0#
0$
0%
0&
1'
x(
1)
1*
1+
0,
0-
0.
0/
00
01
02
$end
#20000
1#
1/
11
1,
1%
#40000
1"
0#
1.
0/
#60000
1#
1/
12
1-
1$
#80000
1!
0"
0#
10
0.
0/
02
01
0,
0-
0$
0%
#100000
1#
1/
11
1,
1%
#120000
1"
0#
1.
0/
01
0,
0%
#140000
1#
1/
11
1,
1%
#160000
0!
0"
0#
00
0.
0/
01
0,
0%
