Lab6/simulation/qsim/Lab6.msim.vcd
$comment
	File created using the following command:
		vcd file Lab6.msim.vcd -direction
$end
$date
	Wed Nov 11 07:54:33 2020
$end
$version
	ModelSim Version 2020.1
$end
$timescale
	1ps
$end

$scope module Lab6_vlg_vec_tst $end
$var reg 4 ! A [3:0] $end
$var reg 4 " B [3:0] $end
$var reg 4 # P [3:0] $end
$var reg 1 $ Save $end
$var wire 1 % C4 $end
$var wire 1 & R [3] $end
$var wire 1 ' R [2] $end
$var wire 1 ( R [1] $end
$var wire 1 ) R [0] $end
$var wire 1 * V $end
$var wire 1 + Z $end

$scope module i1 $end
$var wire 1 , gnd $end
$var wire 1 - vcc $end
$var wire 1 . unknown $end
$var tri1 1 / devclrn $end
$var tri1 1 0 devpor $end
$var tri1 1 1 devoe $end
$var wire 1 2 C4~output_o $end
$var wire 1 3 Z~output_o $end
$var wire 1 4 V~output_o $end
$var wire 1 5 R[3]~output_o $end
$var wire 1 6 R[2]~output_o $end
$var wire 1 7 R[1]~output_o $end
$var wire 1 8 R[0]~output_o $end
$var wire 1 9 B[3]~input_o $end
$var wire 1 : P[3]~input_o $end
$var wire 1 ; Save~input_o $end
$var wire 1 < Save~inputclkctrl_outclk $end
$var wire 1 = P[0]~input_o $end
$var wire 1 > A[0]~input_o $end
$var wire 1 ? P[2]~input_o $end
$var wire 1 @ B[0]~input_o $end
$var wire 1 A inst|Mux3~0_combout $end
$var wire 1 B P[1]~input_o $end
$var wire 1 C A[3]~input_o $end
$var wire 1 D inst|comb_12|F4|S~2_combout $end
$var wire 1 E A[2]~input_o $end
$var wire 1 F B[2]~input_o $end
$var wire 1 G A[1]~input_o $end
$var wire 1 H B[1]~input_o $end
$var wire 1 I inst|comb_12|F1|Cout~0_combout $end
$var wire 1 J inst|comb_12|F2|Cout~0_combout $end
$var wire 1 K inst|comb_12|F3|S~combout $end
$var wire 1 L inst3|12~q $end
$var wire 1 M inst|Mux2~0_combout $end
$var wire 1 N inst|Mux2~1_combout $end
$var wire 1 O inst|comb_12|F2|S~combout $end
$var wire 1 P inst3|9~q $end
$var wire 1 Q inst|Mux1~0_combout $end
$var wire 1 R inst|Mux1~1_combout $end
$var wire 1 S inst|comb_12|F4|S~combout $end
$var wire 1 T inst3|15~q $end
$var wire 1 U inst|Mux3~1_combout $end
$var wire 1 V inst|comb_12|F1|S~combout $end
$var wire 1 W inst3|1~q $end
$var wire 1 X inst|Mux0~0_combout $end
$var wire 1 Y inst|Mux0~1_combout $end
$var wire 1 Z inst|comb_12|F3|Cout~0_combout $end
$var wire 1 [ inst|comb_12|F4|Cout~0_combout $end
$var wire 1 \ inst|WideNor0~combout $end
$var wire 1 ] inst|comb_12|v~combout $end
$upscope $end
$upscope $end
$enddefinitions $end
#0
$dumpvars
b1111 !
b1111 "
b0 #
0$
1%
0)
1(
1'
1&
0*
0+
0,
1-
x.
1/
10
11
12
03
04
15
16
17
08
19
0:
0;
0<
0=
1>
0?
1@
0A
0B
1C
0D
1E
1F
1G
1H
1I
1J
1K
0L
1M
1N
1O
0P
1Q
1R
1S
0T
1U
0V
0W
1X
1Y
1Z
1[
1\
0]
$end
#20000
b1 #
1=
1V
18
1)
#30000
1$
1;
1<
1W
1T
1P
1L
#40000
b11 #
b111 "
b11 "
b1 "
b0 "
b10 #
0$
0@
0H
0F
09
0=
1B
0;
0<
1A
0M
0Q
0X
0Y
0U
0R
0N
1D
0V
08
1U
1N
1R
1Y
0D
0I
0)
1V
0S
0K
0O
07
06
05
18
1I
1)
0&
0'
0(
0V
1S
1K
16
15
08
0)
1&
1'
1O
17
1(
#60000
b11 #
1=
1V
18
1)
#80000
b111 #
b101 #
b100 #
0=
0B
1?
0Y
0U
0R
0N
1D
0V
08
0I
0)
1V
0S
0K
0O
07
06
05
18
0J
1)
0&
0'
0(
1O
17
0Z
1(
1S
1K
16
15
1&
1'
0[
02
0%
#100000
b101 #
1=
1I
0V
08
1J
0)
0O
07
1Z
0(
0S
0K
06
05
0\
0&
0'
1[
12
13
1+
1%
#120000
b1000 "
b1100 "
b1110 "
b1111 "
b111 #
b110 #
0=
1B
1@
1H
1F
19
0I
1Y
1U
1R
1N
0D
1M
1Q
1X
1V
18
1I
1\
1)
0V
1S
1K
16
15
08
03
0+
0)
1&
1'
1O
17
1(
#140000
b111 #
1=
1V
18
1)
#150000
b1111 #
b1011 #
b1001 #
b1000 #
0=
0B
0?
1:
0U
0A
0V
08
0I
1U
0)
1V
18
1I
1)
0O
0V
08
07
0(
0)
1O
17
1(
