Lab4/simulation/qsim/Lab4.msim.vcd
$comment
	File created using the following command:
		vcd file Lab4.msim.vcd -direction
$end
$date
	Wed Oct 21 15:01:27 2020
$end
$version
	ModelSim Version 2020.1
$end
$timescale
	1ps
$end

$scope module Lab4_vlg_vec_tst $end
$var reg 1 ! A0 $end
$var reg 1 " A1 $end
$var reg 1 # B0 $end
$var reg 1 $ B1 $end
$var wire 1 % S0 $end
$var wire 1 & S1 $end
$var wire 1 ' S2 $end

$scope module i1 $end
$var wire 1 ( gnd $end
$var wire 1 ) vcc $end
$var wire 1 * unknown $end
$var tri1 1 + devclrn $end
$var tri1 1 , devpor $end
$var tri1 1 - devoe $end
$var wire 1 . S0~output_o $end
$var wire 1 / S1~output_o $end
$var wire 1 0 S2~output_o $end
$var wire 1 1 B0~input_o $end
$var wire 1 2 A0~input_o $end
$var wire 1 3 inst|f~0_combout $end
$var wire 1 4 A1~input_o $end
$var wire 1 5 B1~input_o $end
$var wire 1 6 inst1|f~0_combout $end
$var wire 1 7 inst2|f~0_combout $end
$upscope $end
$upscope $end
$enddefinitions $end
#0
$dumpvars
0!
0"
0#
0$
0%
0&
0'
0(
1)
x*
1+
1,
1-
0.
0/
00
01
02
03
04
05
06
07
$end
#20000
1#
11
13
1.
1%
#40000
1$
0#
15
01
16
03
0.
1/
1&
0%
#60000
1#
11
13
1.
1%
#80000
1!
0$
0#
12
05
01
06
0/
0&
#100000
1#
11
16
03
0.
1/
1&
0%
#120000
1$
0#
15
01
13
1.
1%
#140000
1#
11
17
06
03
0.
0/
10
1'
0&
0%
#160000
1"
0!
0$
0#
14
02
05
01
07
16
1/
00
0'
1&
#180000
1#
11
13
1.
1%
#200000
1$
0#
15
01
17
06
03
0.
0/
10
1'
0&
0%
#220000
1#
11
13
1.
1%
#240000
1!
0$
0#
12
05
01
07
16
1/
00
0'
1&
#260000
1#
11
17
06
03
0.
0/
10
1'
0&
0%
#280000
1$
0#
15
01
13
1.
1%
#300000
1#
11
16
03
0.
1/
1&
0%
